<svg xmlns="http://www.w3.org/2000/svg" viewBox="0 0 512 512" width="512" height="512">
    <defs>
        <filter id="shadow-2" height="300%" width="300%" x="-100%" y="-100%">
            <feFlood flood-color="rgba(0, 0, 0, 1)" result="flood"></feFlood>
            <feComposite in="flood" in2="SourceGraphic" operator="atop" result="composite"></feComposite>
            <feGaussianBlur in="composite" stdDeviation="15" result="blur"></feGaussianBlur>
            <feOffset dx="0" dy="0" result="offset"></feOffset>
            <feComposite in="SourceGraphic" in2="offset" operator="over"></feComposite>
        </filter>
        <filter id="shadow-3" height="300%" width="300%" x="-100%" y="-100%">
            <feFlood flood-color="rgba(0, 0, 0, 1)" result="flood"></feFlood>
            <feComposite in="flood" in2="SourceGraphic" operator="atop" result="composite"></feComposite>
            <feGaussianBlur in="composite" stdDeviation="15" result="blur"></feGaussianBlur>
            <feOffset dx="0" dy="0" result="offset"></feOffset>
            <feComposite in="SourceGraphic" in2="offset" operator="over"></feComposite>
        </filter>
        <filter id="shadow-4" height="300%" width="300%" x="-100%" y="-100%">
            <feFlood flood-color="rgba(0, 0, 0, 1)" result="flood"></feFlood>
            <feComposite in="flood" in2="SourceGraphic" operator="atop" result="composite"></feComposite>
            <feGaussianBlur in="composite" stdDeviation="15" result="blur"></feGaussianBlur>
            <feOffset dx="0" dy="0" result="offset"></feOffset>
            <feComposite in="SourceGraphic" in2="offset" operator="over"></feComposite>
        </filter>
        <radialGradient id="gradient-2">
            <stop offset="0%" stop-color="#f8e71c" stop-opacity="1"></stop>
            <stop offset="100%" stop-color="#f5a623" stop-opacity="1"></stop>
        </radialGradient>
        <radialGradient id="gradient-3">
            <stop offset="0%" stop-color="#f8e71c" stop-opacity="1"></stop>
            <stop offset="100%" stop-color="#f5a623" stop-opacity="1"></stop>
        </radialGradient>
        <radialGradient id="gradient-4">
            <stop offset="0%" stop-color="#f8e71c" stop-opacity="1"></stop>
            <stop offset="100%" stop-color="#f5a623" stop-opacity="1"></stop>
        </radialGradient>
    </defs>
    <rect fill="#2c4251" fill-opacity="1" height="512" width="512" rx="32" ry="32"></rect>
    <g class="" transform="translate(0,0)" style="touch-action: none;">
        <path
            d="M413.72 19.395v98.64l-46.116 46.117-34.198-34.2-6.607 6.61-141.52 141.516 113.513 113.51-52.775 52.773.002 50.31h18.687v-42.568l47.3-47.3 21.4 21.4 148.122-148.124-60.165-60.164 67.447-67.45V19.395h-18.687v123.33l-61.975 61.975-27.332-27.333 51.59-51.59V19.395H413.72zM19.36 30.303V48.99h186.607l44.254 44.254c-2.56 4.393-4.032 9.496-4.032 14.947 0 16.422 13.312 29.736 29.732 29.736s29.732-13.314 29.732-29.735c0-16.42-13.312-29.73-29.732-29.73-4.143 0-8.088.85-11.672 2.382l-50.54-50.54H19.36zm0 55.478v18.69l131.126.003 44.254 44.254c-2.56 4.392-4.035 9.496-4.035 14.947 0 16.42 13.312 29.732 29.732 29.732s29.733-13.312 29.733-29.732-13.312-29.733-29.732-29.733c-4.144 0-8.088.85-11.672 2.382l-50.54-50.54H19.362zm83.386 55.482l-83.385.002v18.69l75.646-.003 44.254 44.26c-2.56 4.39-4.033 9.496-4.033 14.946 0 16.42 13.312 29.733 29.732 29.733s29.73-13.313 29.73-29.734c0-16.42-13.31-29.734-29.73-29.734-4.145 0-8.09.85-11.675 2.383l-50.54-50.543zm230.66 15.12L455.1 278.08 333.406 399.77 211.71 278.08l121.696-121.695zm-1.254 27.388l-94.574 94.574 95.012 95.015 13.215-13.214-81.797-81.8 81.36-81.362-13.216-13.214zm-312.79 21.558v51.207l160.13 160.13v78.005h18.69V384.146L19.362 205.328zm346.51 8.397L352.66 226.94l51.48 51.482-51.77 51.77 13.218 13.214 64.982-64.984-64.695-64.697zm-29.93 33.16c-17.45 0-31.592 14.147-31.592 31.594 0 17.445 14.143 31.59 31.59 31.59 17.45 0 31.593-14.145 31.593-31.59 0-17.45-14.143-31.595-31.592-31.595zM19.36 295.35v51.207l94.886 94.88v53.233h18.688v-85.75L19.362 295.35zm427.378 73.154c-16.42 0-29.732 13.312-29.732 29.732s13.312 29.735 29.732 29.735c3.994 0 7.802-.794 11.28-2.222l36.62 36.615v-26.427l-22.402-22.4c2.688-4.47 4.237-9.704 4.237-15.3 0-16.42-13.314-29.732-29.735-29.732zM19.36 386.19V437.4l31.294 31.29-.002 25.982H69.34l.006-58.496L19.36 386.19zm371.902 37.796c-16.42 0-29.733 13.312-29.733 29.733 0 16.42 13.31 29.73 29.732 29.73 3.513 0 6.882-.612 10.01-1.73l12.955 12.95h26.43l-24.58-24.578c3.104-4.697 4.917-10.322 4.917-16.373 0-16.422-13.312-29.734-29.732-29.734z"
            fill="#fff" fill-opacity="1"></path>
    </g>
</svg>